25

17 9
6
f 5 2 s
h 4 6 s
r 3 8 e
t 13 7 s
t 15 4 s
t 5 8 s
8 6

18 10
6
r 14 7 e
f 13 5 w
f 1 9 e
t 15 6 w
r 3 1 s
t 10 7 e
5 5

20 13
3
t 1 2 s
t 7 4 n
r 6 4 w
2 8

6 12
5
f 1 9 s
t 3 4 s
t 1 7 w
r 3 10 s
t 3 6 s
2 2

23 4
9
f 11 2 e
h 16 0 n
f 20 1 n
h 9 1 s
r 0 1 e
r 12 2 w
f 2 1 n
r 15 3 w
r 0 1 s
2 10

10 4
8
r 8 0 n
r 0 0 s
t 9 0 e
t 8 2 n
r 2 1 s
f 6 0 n
h 6 2 w
t 6 0 e
7 6

2 21
4
t 1 8 n
f 0 20 w
f 1 3 w
h 1 1 w
3 2

4 6
1
r 1 3 w
5 8

3 12
10
f 1 6 e
r 2 6 e
f 0 4 s
f 2 1 n
h 2 1 n
t 2 0 w
f 2 10 n
t 0 9 e
r 1 6 e
t 1 5 e
4 3

11 22
7
f 2 6 e
t 3 7 n
h 5 5 e
t 5 16 w
r 3 19 e
r 1 17 n
r 1 1 e
3 10

8 25
4
h 1 0 e
h 4 16 w
t 5 17 s
f 6 6 e
5 5

22 1
6
t 13 0 s
h 15 0 w
r 16 0 n
r 8 0 s
h 6 0 e
f 8 0 n
2 2

9 8
6
h 3 1 s
t 2 4 w
r 1 1 e
t 4 5 s
f 6 3 s
f 2 4 e
1 8

19 21
5
r 14 16 w
r 14 18 w
f 13 0 w
t 17 7 e
t 18 2 w
2 4

21 9
1
r 20 0 w
7 10

24 5
2
f 2 2 n
t 23 3 n
7 4

25 3
3
r 11 1 w
r 15 0 w
t 11 2 e
8 3

14 22
1
h 7 4 n
4 10

20 11
9
r 16 8 s
r 8 8 n
h 14 10 w
t 3 2 e
r 9 0 w
f 2 9 e
t 5 8 s
h 8 9 e
h 15 10 e
5 6

15 17
5
h 3 15 s
t 0 7 w
h 5 7 n
t 4 12 s
t 10 11 w
2 10

2 6
2
h 1 1 w
f 1 1 e
4 9

2 11
9
h 0 9 e
t 1 0 n
h 1 3 s
f 0 0 w
h 0 7 n
r 0 0 n
f 1 9 e
r 0 3 s
f 1 4 n
9 1

22 17
9
h 19 15 s
r 5 0 w
t 19 10 w
h 3 9 w
h 1 15 n
h 10 0 n
f 2 13 w
r 10 3 n
f 6 1 s
3 3

3 21
4
t 0 20 n
r 1 16 e
h 0 16 w
r 0 17 w
10 7

15 18
10
h 5 3 e
h 0 16 n
f 10 16 e
h 3 17 n
t 6 11 e
h 9 16 e
f 6 15 w
r 4 17 s
t 9 16 n
h 1 12 e
7 2
