*** Darwin 5x9 ***
Turn = 0.
  012345678
0 .f.....t.
1 ..t.h.r..
2 .h.h..h..
3 ....r....
4 .........

*** Darwin 12x13 ***
Turn = 0.
  0123456789012
0 ..t..........
1 ..f........f.
2 .............
3 .h...........
4 .h...........
5 ...r..f....f.
6 t............
7 ...ff........
8 .....t.......
9 .........h...
0 .r....f....r.
1 .............

Turn = 1.
  0123456789012
0 ..t..........
1 ..t........f.
2 .............
3 .h...........
4 ..hr.........
5 ......f....f.
6 t............
7 ...ff........
8 .....t.......
9 ........h....
0 ......f.....r
1 .r...........

Turn = 2.
  0123456789012
0 ..t..........
1 ..t........f.
2 .............
3 ...r.........
4 .hh..........
5 ......f....f.
6 t............
7 ...ff........
8 .....t.......
9 .......h.....
0 ......f.....r
1 .r...........

Turn = 3.
  0123456789012
0 ..t..........
1 ..t........f.
2 ...r.........
3 .............
4 ...h.........
5 .h....f....f.
6 t............
7 ...ff........
8 .....t.......
9 ......h......
0 ......f......
1 ..r.........r

Turn = 4.
  0123456789012
0 ..t..........
1 ..tr.......f.
2 .............
3 .............
4 ....h........
5 ......f....f.
6 th...........
7 ...ff........
8 .....t.......
9 .....h.......
0 ......f......
1 ...r........r

Turn = 5.
  0123456789012
0 ..tr.........
1 ..t........f.
2 .............
3 .............
4 .....h.......
5 ......f....f.
6 t............
7 .h.ff........
8 .....t.......
9 ....h........
0 ......f......
1 ....r......r.

*** Darwin 11x12 ***
Turn = 0.
  012345678901
0 ..........f.
1 ............
2 ......r.....
3 ............
4 ..........h.
5 ............
6 .......f....
7 ......t.....
8 h..r........
9 ............
0 ....r......t

*** Darwin 3x4 ***
Turn = 0.
  0123
0 h.hf
1 .ht.
2 ...f

*** Darwin 5x8 ***
Turn = 0.
  01234567
0 ...h..t.
1 tr...rth
2 .h..t..h
3 rr......
4 .ffr..h.

Turn = 5.
  01234567
0 r.....t.
1 ......tt
2 ...tt.h.
3 r.rr....
4 rrfh..rr

*** Darwin 8x8 ***
Turn = 0.
  01234567
0 .r...r.h
1 ......f.
2 ......tr
3 ........
4 r....t..
5 ..r.h...
6 .t.th..f
7 ..h.....

Turn = 1.
  01234567
0 ..r.r.h.
1 ......f.
2 ......tt
3 ........
4 .r...t..
5 .r..h...
6 .t.th..f
7 .h......

Turn = 2.
  01234567
0 ...rrh..
1 ......f.
2 ......tt
3 ........
4 ..r..t..
5 r...t...
6 .t.tt..f
7 h.......

Turn = 3.
  01234567
0 ...rrh..
1 ......t.
2 ......tt
3 ........
4 ...r.t..
5 r...t...
6 .t.tt..f
7 h.......

Turn = 4.
  01234567
0 ...rrr..
1 ......t.
2 ......tt
3 ........
4 r...tt..
5 ....t...
6 .t.tt..f
7 h.......

Turn = 5.
  01234567
0 ...rrr..
1 ......t.
2 ......tt
3 r.......
4 ....tt..
5 ....t...
6 .t.tt..f
7 h.......

Turn = 6.
  01234567
0 ...rr.r.
1 ......t.
2 r.....tt
3 ........
4 ....tt..
5 ....t...
6 .t.tt..f
7 h.......

Turn = 7.
  01234567
0 ...rr..r
1 r.....t.
2 ......tt
3 ........
4 ....tt..
5 ....t...
6 .t.tt..f
7 h.......

*** Darwin 11x19 ***
Turn = 0.
  0123456789012345678
0 ...................
1 ...h...............
2 .....rt.r..........
3 ....t..............
4 ...................
5 ...........f.......
6 ..................r
7 .........h......h..
8 ..t....r..........f
9 ............t......
0 ...................

Turn = 3.
  0123456789012345678
0 ...................
1 ......h............
2 ..r..rr............
3 ....t..............
4 .........h.........
5 .......r...f.......
6 ...................
7 .................h.
8 ..t.............r.r
9 ............t......
0 ...................

Turn = 6.
  0123456789012345678
0 ...................
1 .........h.........
2 r.rr...r.h.........
3 ....t..............
4 ...................
5 ...........f.......
6 ...................
7 ..................h
8 ..t..........r.....
9 ............t......
0 ..................r

Turn = 9.
  0123456789012345678
0 r......r.h.........
1 ............h......
2 rr.................
3 ....t..............
4 ...................
5 ...........f.......
6 ...................
7 ..................h
8 ..t.......r........
9 ............t......
0 .................r.

Turn = 12.
  0123456789012345678
0 ...r....r.r........
1 ...............h...
2 ...................
3 ....t..............
4 ...................
5 rr.........f.......
6 ...................
7 ..................h
8 ..t....r...........
9 ............t......
0 ..............r....

Turn = 15.
  0123456789012345678
0 ......r......r.....
1 ..................h
2 ...................
3 ....t...r..........
4 ...................
5 ...........f.......
6 ...................
7 ..................h
8 rtt.r..............
9 ............t......
0 ...........r.......

Turn = 18.
  0123456789012345678
0 .........r......r..
1 ..................h
2 ...................
3 ....t..............
4 ...................
5 ...........f.......
6 ........r..........
7 ..................h
8 .trr...............
9 ............t......
0 r.......r..........

*** Darwin 16x3 ***
Turn = 0.
  012
0 ..h
1 .t.
2 t..
3 .t.
4 ...
5 ...
6 .r.
7 .h.
8 .tf
9 ...
0 .hr
1 ...
2 t..
3 ...
4 ...
5 f..

Turn = 15.
  012
0 ..h
1 .t.
2 t..
3 tt.
4 ...
5 ...
6 ...
7 .t.
8 .tt
9 .t.
0 ...
1 ...
2 r..
3 r..
4 .r.
5 ...

*** Darwin 3x9 ***
Turn = 0.
  012345678
0 ......r..
1 .t....h.r
2 f....f.h.

*** Darwin 9x6 ***
Turn = 0.
  012345
0 tt....
1 ..hf.f
2 ......
3 .hrrt.
4 .f....
5 ..t...
6 t..h..
7 f....h
8 .....h

*** Darwin 12x2 ***
Turn = 0.
  01
0 .h
1 ..
2 ..
3 h.
4 ..
5 tr
6 ..
7 fh
8 ..
9 .t
0 .f
1 ..

*** Darwin 16x10 ***
Turn = 0.
  0123456789
0 ..........
1 .........h
2 ..........
3 ..........
4 ..........
5 ..........
6 ..........
7 ..........
8 ..........
9 ..........
0 ..........
1 ..........
2 ..........
3 ..........
4 th.....r..
5 ..........

Turn = 10.
  0123456789
0 ..........
1 .........h
2 ..........
3 ..........
4 .h.....r..
5 ..........
6 ..........
7 ..........
8 ..........
9 ..........
0 ..........
1 ..........
2 ..........
3 ..........
4 t.........
5 ..........

*** Darwin 19x6 ***
Turn = 0.
  012345
0 .....h
1 ...h..
2 ......
3 ..f...
4 ......
5 ......
6 ......
7 f.....
8 ..f.t.
9 ...f..
0 .hf...
1 ......
2 ...t..
3 ..r...
4 ....h.
5 ......
6 ......
7 ......
8 ......

*** Darwin 8x17 ***
Turn = 0.
  01234567890123456
0 ...............f.
1 .........r.......
2 .................
3 t.....r..........
4 .................
5 .......f....f....
6 .................
7 ...........h.....

Turn = 13.
  01234567890123456
0 ..............rr.
1 .................
2 .................
3 t................
4 .................
5 .......f....f....
6 .................
7 h..............r.

*** Darwin 4x19 ***
Turn = 0.
  0123456789012345678
0 ..............f.t..
1 .r..hr.t....hf....h
2 ...h......h......fh
3 .......h....t..h...

*** Darwin 12x9 ***
Turn = 0.
  012345678
0 .........
1 .........
2 ........r
3 .........
4 ....h.t..
5 ......t..
6 r........
7 ...f.....
8 .........
9 f.f......
0 .........
1 ..t......

Turn = 10.
  012345678
0 ....h....
1 .........
2 ..r......
3 .........
4 ......t.r
5 ......t..
6 .........
7 ...f.....
8 .........
9 r......r.
0 .........
1 ..t......

*** Darwin 15x18 ***
Turn = 0.
  012345678901234567
0 ..................
1 ..................
2 ......h...........
3 ..................
4 ..................
5 h.................
6 ..................
7 ..................
8 ..................
9 ..................
0 ...........h......
1 ................h.
2 ..................
3 ..................
4 ..........r.......

Turn = 3.
  012345678901234567
0 ......h...........
1 ..................
2 ..................
3 ..................
4 ..................
5 ...h..............
6 ..................
7 ..................
8 ..................
9 ..................
0 ........h.........
1 ..........r.......
2 ..................
3 ..................
4 ................h.

Turn = 6.
  012345678901234567
0 ......h...........
1 ..................
2 ..................
3 ..................
4 ..................
5 ......h...........
6 ..................
7 ..................
8 ..........r.......
9 ..................
0 .....h............
1 ..................
2 ..................
3 ..................
4 ................h.

Turn = 9.
  012345678901234567
0 ......h...........
1 ..................
2 ..................
3 ..................
4 ..................
5 .........hr.......
6 ..................
7 ..................
8 ..................
9 ..................
0 ..h...............
1 ..................
2 ..................
3 ..................
4 ................h.

Turn = 12.
  012345678901234567
0 ......h...........
1 ..................
2 ..........r.......
3 ..................
4 ..................
5 ...........h......
6 ..................
7 ..................
8 ..................
9 ..................
0 h.................
1 ..................
2 ..................
3 ..................
4 ................h.

Turn = 15.
  012345678901234567
0 ......h...r.......
1 ..................
2 ..................
3 ..................
4 ..................
5 ..............h...
6 ..................
7 ..................
8 ..................
9 ..................
0 h.................
1 ..................
2 ..................
3 ..................
4 ................h.

Turn = 18.
  012345678901234567
0 ......h......r....
1 ..................
2 ..................
3 ..................
4 ..................
5 .................h
6 ..................
7 ..................
8 ..................
9 ..................
0 h.................
1 ..................
2 ..................
3 ..................
4 ................h.

*** Darwin 1x6 ***
Turn = 0.
  012345
0 ..hhfr

Turn = 16.
  012345
0 .r.rrr

*** Darwin 17x12 ***
Turn = 0.
  012345678901
0 ............
1 ............
2 ............
3 ............
4 ............
5 ...........r
6 ............
7 ............
8 ............
9 ............
0 ............
1 ............
2 ............
3 ............
4 ............
5 ............
6 ............

*** Darwin 9x11 ***
Turn = 0.
  01234567890
0 .....f.....
1 ....t......
2 ...........
3 ...........
4 ...........
5 ...........
6 ...........
7 ...........
8 ..t......h.

Turn = 6.
  01234567890
0 .....f.....
1 ....t......
2 ...........
3 ...........
4 ...........
5 ...........
6 ...........
7 ...........
8 ..t.......h

*** Darwin 7x15 ***
Turn = 0.
  012345678901234
0 ...............
1 ...h...........
2 ...............
3 .....r.........
4 ..........h...f
5 ...............
6 ...............

Turn = 1.
  012345678901234
0 ...............
1 ....h..........
2 .....r.........
3 ...............
4 ...........h..f
5 ...............
6 ...............

Turn = 2.
  012345678901234
0 ...............
1 .....r.........
2 .....r.........
3 ...............
4 ............h.f
5 ...............
6 ...............

Turn = 3.
  012345678901234
0 ...............
1 .....rr........
2 ...............
3 ...............
4 .............hf
5 ...............
6 ...............

Turn = 4.
  012345678901234
0 .....r.........
1 .......r.......
2 ...............
3 ...............
4 .............hf
5 ...............
6 ...............

Turn = 5.
  012345678901234
0 .....r.........
1 ........r......
2 ...............
3 ...............
4 .............hf
5 ...............
6 ...............

Turn = 6.
  012345678901234
0 ......r........
1 .........r.....
2 ...............
3 ...............
4 .............hf
5 ...............
6 ...............

Turn = 7.
  012345678901234
0 .......r.......
1 ..........r....
2 ...............
3 ...............
4 .............hf
5 ...............
6 ...............

Turn = 8.
  012345678901234
0 ........r......
1 ...........r...
2 ...............
3 ...............
4 .............hf
5 ...............
6 ...............

Turn = 9.
  012345678901234
0 .........r.....
1 ............r..
2 ...............
3 ...............
4 .............hf
5 ...............
6 ...............

Turn = 10.
  012345678901234
0 ..........r....
1 .............r.
2 ...............
3 ...............
4 .............hf
5 ...............
6 ...............

Turn = 11.
  012345678901234
0 ...........r...
1 ..............r
2 ...............
3 ...............
4 .............hf
5 ...............
6 ...............

Turn = 12.
  012345678901234
0 ............r..
1 ..............r
2 ...............
3 ...............
4 .............hf
5 ...............
6 ...............

Turn = 13.
  012345678901234
0 .............rr
1 ...............
2 ...............
3 ...............
4 .............hf
5 ...............
6 ...............

Turn = 14.
  012345678901234
0 .............rr
1 ...............
2 ...............
3 ...............
4 .............hf
5 ...............
6 ...............

Turn = 15.
  012345678901234
0 ..............r
1 .............r.
2 ...............
3 ...............
4 .............hf
5 ...............
6 ...............

Turn = 16.
  012345678901234
0 ...............
1 ..............r
2 .............r.
3 ...............
4 .............hf
5 ...............
6 ...............

Turn = 17.
  012345678901234
0 ...............
1 ...............
2 ..............r
3 .............r.
4 .............hf
5 ...............
6 ...............
